{
  "compilerOptions": {
    "baseUrl": ".",
    "paths": {
      "@Images/*": ["./src/Assets/Images/*"],
      "@Styles/*": ["./src/Assets/Styles/*"],
      "@Atoms/*": ["./src/Components/Atoms/*"],
      "@Molecules/*": ["./src/Components/Molecules/*"],
      "@Organisms/*": ["./src/Components/Organisms/*"],
      "@Utilities/*": ["./src/Utilities/*"]
    }
  },
  "exclude": ["node_modules", "build"]
}